2011-12-16T19:57:17.2983475Z - 13480 - Info - Loaded 14732 devices using 12726 strings in 2531ms
2013-11-12T16:19:56.3308000Z - 5064 - Info - Loaded 14732 devices using 12726 strings in 4499ms
2013-11-12T16:26:00.8928000Z - 5064 - Info - Loaded 14732 devices using 12726 strings in 4307ms
2013-11-12T16:29:26.6748000Z - 5064 - Info - Loaded 14732 devices using 12726 strings in 4314ms
2013-11-13T18:07:04.6540000Z - 3516 - Info - Loaded 14732 devices using 12726 strings in 4529ms
2013-11-13T20:06:35.4660000Z - 6092 - Info - Loaded 14732 devices using 12726 strings in 4470ms
2013-11-14T17:50:58.4979000Z - 3860 - Info - Loaded 14732 devices using 12726 strings in 4546ms
2013-11-14T18:45:02.7556000Z - 4396 - Info - Loaded 14732 devices using 12726 strings in 4477ms
2013-11-15T00:07:17.0876000Z - 3908 - Info - Loaded 14732 devices using 12726 strings in 4859ms
2013-11-26T18:09:28.5770000Z - 8088 - Info - Loaded 14732 devices using 12726 strings in 4914ms
2013-11-26T18:15:31.4510000Z - 8088 - Info - Loaded 14732 devices using 12726 strings in 4949ms
