2014-02-11T22:20:45.8410543Z - 10300 - Info - Loaded 14732 devices using 12726 strings in 1396ms
2014-02-11T22:22:21.4365220Z - 10300 - Info - Loaded 14732 devices using 12726 strings in 1423ms
2014-02-13T21:46:41.6214820Z - 3452 - Info - Loaded 14732 devices using 12726 strings in 1412ms
2014-02-13T21:52:08.3381691Z - 3452 - Info - Loaded 14732 devices using 12726 strings in 1358ms
2014-02-13T21:52:18.1527305Z - 3452 - Info - Loaded 14732 devices using 12726 strings in 1368ms
2014-02-13T21:54:06.6929386Z - 3452 - Info - Loaded 14732 devices using 12726 strings in 1339ms
2014-02-13T21:54:10.6351641Z - 3452 - Info - Loaded 14732 devices using 12726 strings in 1414ms
2014-02-17T16:36:12.9747204Z - 9640 - Info - Loaded 14732 devices using 12726 strings in 1412ms
2014-02-17T16:42:47.6272933Z - 9640 - Info - Loaded 14732 devices using 12726 strings in 1373ms
2014-02-17T16:44:45.9440606Z - 9640 - Info - Loaded 14732 devices using 12726 strings in 1369ms
2014-02-17T16:46:18.5423569Z - 9640 - Info - Loaded 14732 devices using 12726 strings in 1390ms
2014-02-17T19:48:36.0059441Z - 10504 - Info - Loaded 14732 devices using 12726 strings in 1400ms
2018-05-03T20:03:46.9836254Z - 10820 - Info - Loaded 14732 devices using 12726 strings in 1489ms
2018-05-23T16:28:50.3795223Z - 15092 - Info - Loaded 14732 devices using 12726 strings in 1625ms
2018-07-02T18:49:23.3918658Z - 7260 - Info - Loaded 14732 devices using 12726 strings in 1669ms
2018-07-16T19:11:31.6727609Z - 10948 - Info - Loaded 14732 devices using 12726 strings in 1551ms
2018-07-16T19:44:27.4284273Z - 10948 - Info - Loaded 14732 devices using 12726 strings in 1521ms
2018-11-28T19:05:11.8581626Z - 10376 - Info - Loaded 14732 devices using 12726 strings in 1669ms
2018-12-04T15:23:52.2119758Z - 2032 - Info - Loaded 14732 devices using 12726 strings in 2152ms
2018-12-19T17:11:06.7547475Z - 7260 - Info - Loaded 14732 devices using 12726 strings in 1660ms
